{
    "answer": "200",
    "dataGeneration": "2019-04-03 12:00",
    "offers": [
        {
        "make": "Volkswagen",
        "model": "Golf VII",
        "engine": "1.6 TDI",
        "availability": false,
        "photo": "https://s.qarson.com/cars/35360/LF30.qlt.jpg"
        },
        {
        "make": "Volkswagen",
        "model": "up!",
        "engine": "1.0 BMT",
        "availability": true,
        "photo": "https://s.qarson.com/cars/39553/LF30.qlt.jpg"
        },
        {
        "make": "Volkswagen",
        "model": "Polo VI",
        "engine": "1.0 TSI",
        "availability": false,
        "photo": "https://s.qarson.com/cars/39771/LF30.qlt.jpg"
        },
        {
        "make": "Skoda",
        "model": "Karoq",
        "engine": "1.6 TDI",
        "availability": true,
        "photo": "https://s.qarson.com/cars/40036/LF30.qlt.jpg"
        },
        {
        "make": "Seat",
        "model": "Arona",
        "engine": "1.0 TSI",
        "availability": false,
        "photo": "https://s.qarson.com/cars/38884/LF30.qlt.jpg"
        },
        {
        "make": "Renualt",
        "model": "Twingo",
        "engine": "1.0 Sce",
        "availability": true,
        "photo": "https://s.qarson.com/cars/33120/LF30.qlt.jpg"
        },
        {
        "make": "Renualt",
        "model": "Clio",
        "engine": "1.0 Tce",
        "availability": false,
        "photo": "https://s.qarson.com/cars/41632/LF30.qlt.jpg"
        },
        {
        "make": "Pegeuot",
        "model": "208",
        "engine": "1.2 PureTech",
        "availability": true,
        "photo": "https://s.qarson.com/cars/39055/LF30.qlt.jpg"
        },
        {
        "make": "Pegeuot",
        "model": "208",
        "engine": "1.2 PureTech",
        "availability": false
        },
        {
        "make": "Kia",
        "model": "Rio",
        "engine": "1.25 CVVT",
        "availability": true
        },
        {
        "make": "Kia",
        "model": "Rio",
        "engine": "1.25 CVVT",
        "availability": true,
        "photo": "https://s.qarson.com/cars/38218/LF30.qlt.jpg"
        }
    ]
}